[
    {
        "age": "Verzending factuur",
        "value": "385",
        "color": "rgba(51, 255, 0, .5)"
    },
    {
        "age": "Eerste herinnering",
        "value": "360",
        "color": "blue"
    },
    {
        "age": "Tweede herinnering",
        "value": "320",
        "color": "pear"
    },
    {
        "age": "Aanmaning",
        "value": "255",
        "color": "gold"
    },
    {
        "age": "Herinnering aanmaning",
        "value": "320",
        "color": "yellow"
    },
    {
        "age": "Pregerechterlijk",
        "value": "310",
        "color": "red"
    },
    {
        "age": "Gerechterlijk",
        "value": "310",
        "color": "silver"
    },
    {
        "age": "Einde traject",
        "value": "310",
        "color": "pink"
    }
]